namefirst,namelast,email,username,age,country
Leroy,Stiefvater,cruelertrumpeterwaterproofing@disbelieveszillion.info,overdrawsflanks,44,Gaza Strip
Frankie,Puopolo,redraftedSagittariuss@joinerscompletesbrier.edu,seraphs,5,Sao Tome and Principe
Ben,Mullis,grandpagrenadiersPrakrits@PleiadesHyundai.edu,causeGoianias,75,Afghanistan
Rolf,Coffindaffer,bestialitys@slutsGoodyear.com,deadenshummocking,42,Virgin Islands
Porter,Labee,dadoszealously@seepsoxs.net,ingot,67,Afghanistan
Kenny,Stoner,dosesconundrums@safenesssstereophonic.edu,triageradiology,19,Morocco
Craig,Birkhold,Whiteatrociousness@idiomoverreactions.net,palliativebarred,42,Equatorial Guinea
Ervin,Jurczyk,liquidatorsrustiness@extortclaretedCallaghan.gov,rafters,31,Turkey
Pat,Artalejo,victorymillions@minionsundeceived.com,modifyingRoscoes,45,Pacific Ocean
Dewitt,Swinhart,totMitchelsplashdowns@hostbedrockerections.gov,repulsivenesscoiffing,35,Guadeloupe
Octavio,Ronconi,indiscriminately@Cidssubsisting.net,AfrikanersTrinidad,19,Jordan
Dominique,Nakhla,easesdeclaring@Montaguegametescolitis.net,disservicesabhors,67,Egypt
Ian,Bonnin,neglectfullyaccommodating@callower.me,Alfredscasseroled,52,Indonesia
Gordon,Cayson,viewingspanhandler@LinotypesEstoniaunrolled.edu,foamexperimenter,38,Botswana
Newton,Matys,oblateclubfootanthologized@Buddhismflexeslacks.info,subtlestdrifter,46,Maldives
Whitney,Malnick,sprawlingscripsbulb@forenoonmusicalematricides.gov,fantasytableaux,85,Dominica
Marquis,Maulsby,vesperEscherInvars@asphaltsunderpants.gov,coolantCarrollHopes,80,Antarctica
Elvis,Stief,canapésimprovements@prohibitionsreelection.edu,marinatingtyrannous,85,Chile
Tuan,Jussila,retrogressemissarys@swindlerinterpositions.com,parityexcruciatingly,99,Liberia
Dominic,Philman,treasurersemphasizing@sloughs.edu,irradiated,62,Faroe Islands
Milan,Allemond,caseinsshogunkeywords@consolidatesravishes.gov,parethrombosis,101,Lebanon
Hoyt,Baluch,Matteldisgustingly@Talleyrandstemporarily.info,monarchisms,55,Macau
Marlon,Brajkovich,idiomaticpeskiest@Anglicanismfinely.me,trending,29,Palmyra Atoll
Brendon,Lansdon,bobguzzleAmericanisms@awfulstuffsHippocratic.info,prosecuteLorres,84,Montserrat
Eldridge,Giglia,predominancecytoplasms@petitioners.net,alphabetically,100,Barbados
